{
  "port": 1989,
  "port_graphs": 1988,
  "https": true,
  "base_url": "/",
  "access_key": "9OAMUJHalcpJcR0CohSNTXDirqA",
  "render_access_key": "APNpLHHSJYQ9uV4R",
  "mail_access_key": "VaX8pHGLBw",
  "rabbitmq": "amqp://render:Render!xyz123@queue1.fitin.vn:5672/render",
  "mongodb": "mongodb://consultant:Consultant!123456@mongo1.fitin.vn:27017/fitin-consultant",
  "mysql": {
    "master": {
      "host": "mysql1.fitin.vn",
      "port": 3306,
      "name": "fitin-ecom",
      "user": "fitin",
      "pwd": "Fitin@xyz123",
      "limit": 100,
      "debug": false
    },
    "slave": {
      "host": "mysql2.fitin.vn",
      "port": 3306,
      "name": "fitin-ecom",
      "user": "fitin",
      "pwd": "Fitin@xyz123",
      "limit": 100,
      "debug": false
    }
  },
  "version": "2020.02.27",
  "log_level": "debug",
  "ga_id": "UA-148571710-1",
  "gtm_id": "GTM-NR6JC7X",
  "facebook_id": "481736152602858",
  "google_id": "1093499772616-ccv70hqpi77elm9qdmb4grgd8prihd44.apps.googleusercontent.com",
  "urls": {
    "domain": "api-project.fitin.dev",
    "quotation_url": "https://api-project.fitin.dev",
    "cdn": "https://cdn.fitin.vn",
    "cdn-consultant": "https://cdn-tuvan.fitin.vn",
    "ecom_api_url": "https://api2.fitin.dev/api/frontend/v1",
    "cart_url": "https://html.fitin.dev/checkout/cart",
    "render_service_url": "https://render.fitin.dev/v1",
    "fitin_id_url": "https://id.fitin.dev/api/v1",
    "mail_api_url": "https://api-mail.fitin.dev/api/v2/send-email",
    "cms_ecom": "cms-ecom",
    "plugin_view_360": "https://plugin.fitin.dev/js360/?key=536535c7524841ec843e6d42ddd9add8&sid=1&objectId=",
    "plugin_view_3d": "https://plugin.fitin.dev/js3d/?key=536535c7524841ec843e6d42ddd9add8&sid=1&objectId=",
    "fitin_api_ecom_url": "https://api2.fitin.dev/api/frontend"
  },
  "fitin": {
    "app_platform": "web",
    "app_version": "0.0.3",
    "map_domain": {
      "hadocentrosa.fitin.vn": {
        "base_url": "/",
        "view": "template_2",
        "project_id": 32,
        "gift_mobile": "static/gift/Hado.gif"
      },
      "kingdom101.fitin.vn": {
        "base_url": "/",
        "view": "template_1",
        "project_id": 17,
        "gift_mobile": "static/gift/Default.gif"
      },
      "lavidaplus.fitin.vn": {
        "base_url": "/",
        "view": "template_1",
        "project_id": 62,
        "gift_mobile": "static/gift/Lavida.gif"
      },
      "oneverandah.fitin.vn": {
        "base_url": "/",
        "view": "template_1",
        "project_id": 61,
        "gift_mobile": "static/gift/Default.gif"
      },
      "centralpremium.fitin.vn": {
        "base_url": "/",
        "view": "template_1",
        "project_id": 27,
        "gift_mobile": "static/gift/Central.gif"
      },
      "saigonsouthresidences.fitin.vn": {
        "base_url": "/",
        "view": "template_1",
        "project_id": 59,
        "gift_mobile": "static/gift/SRR.gif"
      },
      "ecogreen.fitin.vn": {
        "base_url": "/",
        "view": "template_1",
        "project_id": 100271,
        "gift_mobile": "static/gift/Default.gif"
      },
      "fitin.vn": {
        "base_url": "/caitaonoithat/",
        "view": "template_3",
        "project_id": 0,
        "gift_mobile": "static/gift/Default.gif"
      }
    }
  },
  "storage": {
    "root": "/var/www/tuvan.fitin.vn",
    "user_data": "/var/www/tuvan.fitin.vn/storage",
    "static": "/var/www/tuvan.fitin.vn/static"
  },
  "hubspot": {
    "api_key": "f1d18e1b-0364-43f3-990d-a31f3438ecc3",
    "api_url": "https://api.hubapi.com",
    "hubspot_id": "6269675",
    "owner_id": "44427502",
    "contact_list_id": 1,
    "form_quick_consultant": "3eff76c4-de70-40a3-b537-1f851b38704e",
    "form_dl_lookbook": "0574b21c-66e4-405d-8592-3f2db6c2f048",
    "form_dl_project_info": "470d66e5-5c9b-42d6-8efe-5400e95e20b4"
  },
  "redis": {
    "host": "127.0.0.1",
    "port": 6378,
    "prefix": "ecom-v3-"
  }
}